Lesson 3 extension: Data wrangling, t-tests and ANOVA
…
data_combined <- data_usa_clean %>% 
  full_join(data_aut_clean) %>% 
  arrange(year)
data_combined

# A tibble: 104 × 7
    year sex   name       n       prop country n_births
   <dbl> <chr> <chr>  <dbl>      <dbl> <fct>      <dbl>
 1  1984 F     Hannah    11 1          Austria       11
 2  1985 F     Hannah  2448 0.00133    USA           NA
 3  1985 M     Hannah     8 0.00000416 USA           NA
 4  1985 F     Hannah    16 1          Austria       16
 5  1986 F     Hannah  3385 0.00183    USA           NA
 6  1986 M     Hannah    12 0.00000625 USA           NA
 7  1986 F     Hannah    19 1          Austria       19
 8  1987 F     Hannah  4592 0.00245    USA           NA
 9  1987 M     Hannah    26 0.0000133  USA           NA
10  1987 F     Hannah    43 1          Austria       43
# ℹ 94 more rows
…
