Lesson 3 extension: Data wrangling, t-tests and ANOVA
…
  # delete the column n_total
  select(-n_total) #to delete multiple columns: -c("column_1", "column_2")

data_combined

# A tibble: 127 × 6
    year sex   name      n      prop country
   <dbl> <fct> <chr> <dbl>     <dbl> <fct>  
 1  1984 F     Kim     387 0.000215  USA    
 2  1984 M     Kim      92 0.0000490 USA    
 3  1984 F     Kim       1 0.0000119 Austria
 4  1984 M     Kim       2 0.0000239 Austria
 5  1985 F     Kim     348 0.000189  USA    
 6  1985 M     Kim      92 0.0000478 USA    
 7  1985 F     Kim       3 0.0000364 Austria
 8  1986 F     Kim     281 0.000152  USA    
 9  1986 M     Kim      81 0.0000422 USA    
10  1986 F     Kim       6 0.0000731 Austria
# ℹ 117 more rows
…
We actually know that in this case, NA simply means there were no babies with that name. So let’s replace the NAs with 0 using ifelse(). It’s arguments:

The condition for if is that Austria_M is an NA, you can check this with the function is.na() which will give TRUE for missing values (NAs).

if this condition is met (TRUE), then replace with a 0

else, keep the value of Austria_M.

data_combined_wide = data_combined_wide %>% 
    # replace NAs with zero
  mutate(Austria_M = ifelse(is.na(Austria_M), 0, Austria_M))
data_combined_wide

# A tibble: 34 × 6
    year name      USA_F     USA_M Austria_F Austria_M
   <dbl> <chr>     <dbl>     <dbl>     <dbl>     <dbl>
 1  1984 Kim   0.000215  0.0000490 0.0000119 0.0000239
 2  1985 Kim   0.000189  0.0000478 0.0000364 0        
 3  1986 Kim   0.000152  0.0000422 0.0000731 0        
 4  1987 Kim   0.000149  0.0000390 0.0000246 0        
 5  1988 Kim   0.000131  0.0000445 0.0000848 0        
 6  1989 Kim   0.000130  0.0000344 0.000182  0.0000727
 7  1990 Kim   0.000125  0.0000307 0.000144  0.0000120
 8  1991 Kim   0.000102  0.0000283 0.000235  0        
 9  1992 Kim   0.0000908 0.0000214 0.000241  0.0000120
10  1993 Kim   0.0000938 0.0000189 0.000208  0        
# ℹ 24 more rows
